"--cache=/Users/samuel/Desktop/Content VM Share/Coden/SmashGym/SmashGym.iOS/obj/iPhoneSimulator/Debug/device-builds/iphone8.4-12.2/mtouch-cache"
"--sim=/Users/samuel/Desktop/Content VM Share/Coden/SmashGym/SmashGym.iOS/bin/iPhoneSimulator/Debug/device-builds/iphone8.4-12.2/SmashGym.iOS.app"
--executable=SmashGym.iOS
 --debug
 --nolink
--sdkroot=/Applications/Xcode.app/Contents/Developer
--sdk=12.2
--targetver=12.2
 --aot-options=-O=-float32
 --http-message-handler=NSUrlSessionHandler
 --abi=x86_64
"--symbollist=/Users/samuel/Desktop/Content VM Share/Coden/SmashGym/SmashGym.iOS/obj/iPhoneSimulator/Debug/device-builds/iphone8.4-12.2/mtouch-symbols.list"
 --dsym=no
-r=/Library/Frameworks/Xamarin.iOS.framework/Versions/Current/lib/mono/Xamarin.iOS/mscorlib.dll
-r=/Library/Frameworks/Xamarin.iOS.framework/Versions/Current/lib/mono/Xamarin.iOS/OpenTK-1.0.dll
"-r=/Users/samuel/Desktop/Content VM Share/Coden/SmashGym/SmashGym/bin/Debug/netstandard2.0/SmashGym.dll"
-r=/Library/Frameworks/Xamarin.iOS.framework/Versions/Current/lib/mono/Xamarin.iOS/System.Core.dll
-r=/Library/Frameworks/Xamarin.iOS.framework/Versions/Current/lib/mono/Xamarin.iOS/System.dll
-r=/Library/Frameworks/Xamarin.iOS.framework/Versions/Current/lib/mono/Xamarin.iOS/System.Xml.dll
-r=/Library/Frameworks/Xamarin.iOS.framework/Versions/Current/lib/mono/Xamarin.iOS/Xamarin.iOS.dll
-r=/Library/Frameworks/Xamarin.iOS.framework/Versions/Current/lib/mono/Xamarin.iOS/Facades/Microsoft.Win32.Primitives.dll
-r=/Library/Frameworks/Xamarin.iOS.framework/Versions/Current/lib/mono/Xamarin.iOS/Facades/Microsoft.Win32.Registry.AccessControl.dll
-r=/Library/Frameworks/Xamarin.iOS.framework/Versions/Current/lib/mono/Xamarin.iOS/Facades/Microsoft.Win32.Registry.dll
-r=/Library/Frameworks/Xamarin.iOS.framework/Versions/Current/lib/mono/Xamarin.iOS/Facades/netstandard.dll
-r=/Library/Frameworks/Xamarin.iOS.framework/Versions/Current/lib/mono/Xamarin.iOS/Facades/System.AppContext.dll
-r=/Library/Frameworks/Xamarin.iOS.framework/Versions/Current/lib/mono/Xamarin.iOS/Facades/System.Buffers.dll
-r=/Library/Frameworks/Xamarin.iOS.framework/Versions/Current/lib/mono/Xamarin.iOS/Facades/System.Collections.Concurrent.dll
-r=/Library/Frameworks/Xamarin.iOS.framework/Versions/Current/lib/mono/Xamarin.iOS/Facades/System.Collections.dll
-r=/Library/Frameworks/Xamarin.iOS.framework/Versions/Current/lib/mono/Xamarin.iOS/Facades/System.Collections.NonGeneric.dll
-r=/Library/Frameworks/Xamarin.iOS.framework/Versions/Current/lib/mono/Xamarin.iOS/Facades/System.Collections.Specialized.dll
-r=/Library/Frameworks/Xamarin.iOS.framework/Versions/Current/lib/mono/Xamarin.iOS/Facades/System.ComponentModel.Annotations.dll
-r=/Library/Frameworks/Xamarin.iOS.framework/Versions/Current/lib/mono/Xamarin.iOS/Facades/System.ComponentModel.dll
-r=/Library/Frameworks/Xamarin.iOS.framework/Versions/Current/lib/mono/Xamarin.iOS/Facades/System.ComponentModel.EventBasedAsync.dll
-r=/Library/Frameworks/Xamarin.iOS.framework/Versions/Current/lib/mono/Xamarin.iOS/Facades/System.ComponentModel.Primitives.dll
-r=/Library/Frameworks/Xamarin.iOS.framework/Versions/Current/lib/mono/Xamarin.iOS/Facades/System.ComponentModel.TypeConverter.dll
-r=/Library/Frameworks/Xamarin.iOS.framework/Versions/Current/lib/mono/Xamarin.iOS/Facades/System.Console.dll
-r=/Library/Frameworks/Xamarin.iOS.framework/Versions/Current/lib/mono/Xamarin.iOS/Facades/System.Data.Common.dll
-r=/Library/Frameworks/Xamarin.iOS.framework/Versions/Current/lib/mono/Xamarin.iOS/Facades/System.Data.SqlClient.dll
-r=/Library/Frameworks/Xamarin.iOS.framework/Versions/Current/lib/mono/Xamarin.iOS/Facades/System.Diagnostics.Contracts.dll
-r=/Library/Frameworks/Xamarin.iOS.framework/Versions/Current/lib/mono/Xamarin.iOS/Facades/System.Diagnostics.Debug.dll
-r=/Library/Frameworks/Xamarin.iOS.framework/Versions/Current/lib/mono/Xamarin.iOS/Facades/System.Diagnostics.FileVersionInfo.dll
-r=/Library/Frameworks/Xamarin.iOS.framework/Versions/Current/lib/mono/Xamarin.iOS/Facades/System.Diagnostics.Process.dll
-r=/Library/Frameworks/Xamarin.iOS.framework/Versions/Current/lib/mono/Xamarin.iOS/Facades/System.Diagnostics.StackTrace.dll
-r=/Library/Frameworks/Xamarin.iOS.framework/Versions/Current/lib/mono/Xamarin.iOS/Facades/System.Diagnostics.TextWriterTraceListener.dll
-r=/Library/Frameworks/Xamarin.iOS.framework/Versions/Current/lib/mono/Xamarin.iOS/Facades/System.Diagnostics.Tools.dll
-r=/Library/Frameworks/Xamarin.iOS.framework/Versions/Current/lib/mono/Xamarin.iOS/Facades/System.Diagnostics.TraceEvent.dll
-r=/Library/Frameworks/Xamarin.iOS.framework/Versions/Current/lib/mono/Xamarin.iOS/Facades/System.Diagnostics.TraceSource.dll
-r=/Library/Frameworks/Xamarin.iOS.framework/Versions/Current/lib/mono/Xamarin.iOS/Facades/System.Diagnostics.Tracing.dll
-r=/Library/Frameworks/Xamarin.iOS.framework/Versions/Current/lib/mono/Xamarin.iOS/Facades/System.Drawing.Common.dll
-r=/Library/Frameworks/Xamarin.iOS.framework/Versions/Current/lib/mono/Xamarin.iOS/Facades/System.Drawing.Primitives.dll
-r=/Library/Frameworks/Xamarin.iOS.framework/Versions/Current/lib/mono/Xamarin.iOS/Facades/System.Dynamic.Runtime.dll
-r=/Library/Frameworks/Xamarin.iOS.framework/Versions/Current/lib/mono/Xamarin.iOS/Facades/System.Globalization.Calendars.dll
-r=/Library/Frameworks/Xamarin.iOS.framework/Versions/Current/lib/mono/Xamarin.iOS/Facades/System.Globalization.dll
-r=/Library/Frameworks/Xamarin.iOS.framework/Versions/Current/lib/mono/Xamarin.iOS/Facades/System.Globalization.Extensions.dll
-r=/Library/Frameworks/Xamarin.iOS.framework/Versions/Current/lib/mono/Xamarin.iOS/Facades/System.IO.Compression.ZipFile.dll
-r=/Library/Frameworks/Xamarin.iOS.framework/Versions/Current/lib/mono/Xamarin.iOS/Facades/System.IO.dll
-r=/Library/Frameworks/Xamarin.iOS.framework/Versions/Current/lib/mono/Xamarin.iOS/Facades/System.IO.FileSystem.AccessControl.dll
-r=/Library/Frameworks/Xamarin.iOS.framework/Versions/Current/lib/mono/Xamarin.iOS/Facades/System.IO.FileSystem.dll
-r=/Library/Frameworks/Xamarin.iOS.framework/Versions/Current/lib/mono/Xamarin.iOS/Facades/System.IO.FileSystem.DriveInfo.dll
-r=/Library/Frameworks/Xamarin.iOS.framework/Versions/Current/lib/mono/Xamarin.iOS/Facades/System.IO.FileSystem.Primitives.dll
-r=/Library/Frameworks/Xamarin.iOS.framework/Versions/Current/lib/mono/Xamarin.iOS/Facades/System.IO.FileSystem.Watcher.dll
-r=/Library/Frameworks/Xamarin.iOS.framework/Versions/Current/lib/mono/Xamarin.iOS/Facades/System.IO.IsolatedStorage.dll
-r=/Library/Frameworks/Xamarin.iOS.framework/Versions/Current/lib/mono/Xamarin.iOS/Facades/System.IO.MemoryMappedFiles.dll
-r=/Library/Frameworks/Xamarin.iOS.framework/Versions/Current/lib/mono/Xamarin.iOS/Facades/System.IO.Pipes.dll
-r=/Library/Frameworks/Xamarin.iOS.framework/Versions/Current/lib/mono/Xamarin.iOS/Facades/System.IO.UnmanagedMemoryStream.dll
-r=/Library/Frameworks/Xamarin.iOS.framework/Versions/Current/lib/mono/Xamarin.iOS/Facades/System.Linq.dll
-r=/Library/Frameworks/Xamarin.iOS.framework/Versions/Current/lib/mono/Xamarin.iOS/Facades/System.Linq.Expressions.dll
-r=/Library/Frameworks/Xamarin.iOS.framework/Versions/Current/lib/mono/Xamarin.iOS/Facades/System.Linq.Parallel.dll
-r=/Library/Frameworks/Xamarin.iOS.framework/Versions/Current/lib/mono/Xamarin.iOS/Facades/System.Linq.Queryable.dll
-r=/Library/Frameworks/Xamarin.iOS.framework/Versions/Current/lib/mono/Xamarin.iOS/Facades/System.Memory.dll
-r=/Library/Frameworks/Xamarin.iOS.framework/Versions/Current/lib/mono/Xamarin.iOS/Facades/System.Net.AuthenticationManager.dll
-r=/Library/Frameworks/Xamarin.iOS.framework/Versions/Current/lib/mono/Xamarin.iOS/Facades/System.Net.Cache.dll
-r=/Library/Frameworks/Xamarin.iOS.framework/Versions/Current/lib/mono/Xamarin.iOS/Facades/System.Net.HttpListener.dll
-r=/Library/Frameworks/Xamarin.iOS.framework/Versions/Current/lib/mono/Xamarin.iOS/Facades/System.Net.Mail.dll
-r=/Library/Frameworks/Xamarin.iOS.framework/Versions/Current/lib/mono/Xamarin.iOS/Facades/System.Net.NameResolution.dll
-r=/Library/Frameworks/Xamarin.iOS.framework/Versions/Current/lib/mono/Xamarin.iOS/Facades/System.Net.NetworkInformation.dll
-r=/Library/Frameworks/Xamarin.iOS.framework/Versions/Current/lib/mono/Xamarin.iOS/Facades/System.Net.Ping.dll
-r=/Library/Frameworks/Xamarin.iOS.framework/Versions/Current/lib/mono/Xamarin.iOS/Facades/System.Net.Primitives.dll
-r=/Library/Frameworks/Xamarin.iOS.framework/Versions/Current/lib/mono/Xamarin.iOS/Facades/System.Net.Requests.dll
-r=/Library/Frameworks/Xamarin.iOS.framework/Versions/Current/lib/mono/Xamarin.iOS/Facades/System.Net.Security.dll
-r=/Library/Frameworks/Xamarin.iOS.framework/Versions/Current/lib/mono/Xamarin.iOS/Facades/System.Net.ServicePoint.dll
-r=/Library/Frameworks/Xamarin.iOS.framework/Versions/Current/lib/mono/Xamarin.iOS/Facades/System.Net.Sockets.dll
-r=/Library/Frameworks/Xamarin.iOS.framework/Versions/Current/lib/mono/Xamarin.iOS/Facades/System.Net.Utilities.dll
-r=/Library/Frameworks/Xamarin.iOS.framework/Versions/Current/lib/mono/Xamarin.iOS/Facades/System.Net.WebHeaderCollection.dll
-r=/Library/Frameworks/Xamarin.iOS.framework/Versions/Current/lib/mono/Xamarin.iOS/Facades/System.Net.WebSockets.Client.dll
-r=/Library/Frameworks/Xamarin.iOS.framework/Versions/Current/lib/mono/Xamarin.iOS/Facades/System.Net.WebSockets.dll
-r=/Library/Frameworks/Xamarin.iOS.framework/Versions/Current/lib/mono/Xamarin.iOS/Facades/System.ObjectModel.dll
-r=/Library/Frameworks/Xamarin.iOS.framework/Versions/Current/lib/mono/Xamarin.iOS/Facades/System.Reflection.DispatchProxy.dll
-r=/Library/Frameworks/Xamarin.iOS.framework/Versions/Current/lib/mono/Xamarin.iOS/Facades/System.Reflection.dll
-r=/Library/Frameworks/Xamarin.iOS.framework/Versions/Current/lib/mono/Xamarin.iOS/Facades/System.Reflection.Emit.dll
-r=/Library/Frameworks/Xamarin.iOS.framework/Versions/Current/lib/mono/Xamarin.iOS/Facades/System.Reflection.Emit.ILGeneration.dll
-r=/Library/Frameworks/Xamarin.iOS.framework/Versions/Current/lib/mono/Xamarin.iOS/Facades/System.Reflection.Emit.Lightweight.dll
-r=/Library/Frameworks/Xamarin.iOS.framework/Versions/Current/lib/mono/Xamarin.iOS/Facades/System.Reflection.Extensions.dll
-r=/Library/Frameworks/Xamarin.iOS.framework/Versions/Current/lib/mono/Xamarin.iOS/Facades/System.Reflection.Primitives.dll
-r=/Library/Frameworks/Xamarin.iOS.framework/Versions/Current/lib/mono/Xamarin.iOS/Facades/System.Reflection.TypeExtensions.dll
-r=/Library/Frameworks/Xamarin.iOS.framework/Versions/Current/lib/mono/Xamarin.iOS/Facades/System.Resources.Reader.dll
-r=/Library/Frameworks/Xamarin.iOS.framework/Versions/Current/lib/mono/Xamarin.iOS/Facades/System.Resources.ReaderWriter.dll
-r=/Library/Frameworks/Xamarin.iOS.framework/Versions/Current/lib/mono/Xamarin.iOS/Facades/System.Resources.ResourceManager.dll
-r=/Library/Frameworks/Xamarin.iOS.framework/Versions/Current/lib/mono/Xamarin.iOS/Facades/System.Resources.Writer.dll
-r=/Library/Frameworks/Xamarin.iOS.framework/Versions/Current/lib/mono/Xamarin.iOS/Facades/System.Runtime.CompilerServices.VisualC.dll
-r=/Library/Frameworks/Xamarin.iOS.framework/Versions/Current/lib/mono/Xamarin.iOS/Facades/System.Runtime.dll
-r=/Library/Frameworks/Xamarin.iOS.framework/Versions/Current/lib/mono/Xamarin.iOS/Facades/System.Runtime.Extensions.dll
-r=/Library/Frameworks/Xamarin.iOS.framework/Versions/Current/lib/mono/Xamarin.iOS/Facades/System.Runtime.Handles.dll
-r=/Library/Frameworks/Xamarin.iOS.framework/Versions/Current/lib/mono/Xamarin.iOS/Facades/System.Runtime.InteropServices.dll
-r=/Library/Frameworks/Xamarin.iOS.framework/Versions/Current/lib/mono/Xamarin.iOS/Facades/System.Runtime.InteropServices.RuntimeInformation.dll
-r=/Library/Frameworks/Xamarin.iOS.framework/Versions/Current/lib/mono/Xamarin.iOS/Facades/System.Runtime.InteropServices.WindowsRuntime.dll
-r=/Library/Frameworks/Xamarin.iOS.framework/Versions/Current/lib/mono/Xamarin.iOS/Facades/System.Runtime.Loader.dll
-r=/Library/Frameworks/Xamarin.iOS.framework/Versions/Current/lib/mono/Xamarin.iOS/Facades/System.Runtime.Numerics.dll
-r=/Library/Frameworks/Xamarin.iOS.framework/Versions/Current/lib/mono/Xamarin.iOS/Facades/System.Runtime.Serialization.Formatters.dll
-r=/Library/Frameworks/Xamarin.iOS.framework/Versions/Current/lib/mono/Xamarin.iOS/Facades/System.Runtime.Serialization.Json.dll
-r=/Library/Frameworks/Xamarin.iOS.framework/Versions/Current/lib/mono/Xamarin.iOS/Facades/System.Runtime.Serialization.Primitives.dll
-r=/Library/Frameworks/Xamarin.iOS.framework/Versions/Current/lib/mono/Xamarin.iOS/Facades/System.Runtime.Serialization.Xml.dll
-r=/Library/Frameworks/Xamarin.iOS.framework/Versions/Current/lib/mono/Xamarin.iOS/Facades/System.Security.AccessControl.dll
-r=/Library/Frameworks/Xamarin.iOS.framework/Versions/Current/lib/mono/Xamarin.iOS/Facades/System.Security.Claims.dll
-r=/Library/Frameworks/Xamarin.iOS.framework/Versions/Current/lib/mono/Xamarin.iOS/Facades/System.Security.Cryptography.Algorithms.dll
-r=/Library/Frameworks/Xamarin.iOS.framework/Versions/Current/lib/mono/Xamarin.iOS/Facades/System.Security.Cryptography.Cng.dll
-r=/Library/Frameworks/Xamarin.iOS.framework/Versions/Current/lib/mono/Xamarin.iOS/Facades/System.Security.Cryptography.Csp.dll
-r=/Library/Frameworks/Xamarin.iOS.framework/Versions/Current/lib/mono/Xamarin.iOS/Facades/System.Security.Cryptography.DeriveBytes.dll
-r=/Library/Frameworks/Xamarin.iOS.framework/Versions/Current/lib/mono/Xamarin.iOS/Facades/System.Security.Cryptography.Encoding.dll
-r=/Library/Frameworks/Xamarin.iOS.framework/Versions/Current/lib/mono/Xamarin.iOS/Facades/System.Security.Cryptography.Encryption.Aes.dll
-r=/Library/Frameworks/Xamarin.iOS.framework/Versions/Current/lib/mono/Xamarin.iOS/Facades/System.Security.Cryptography.Encryption.dll
-r=/Library/Frameworks/Xamarin.iOS.framework/Versions/Current/lib/mono/Xamarin.iOS/Facades/System.Security.Cryptography.Encryption.ECDiffieHellman.dll
-r=/Library/Frameworks/Xamarin.iOS.framework/Versions/Current/lib/mono/Xamarin.iOS/Facades/System.Security.Cryptography.Encryption.ECDsa.dll
-r=/Library/Frameworks/Xamarin.iOS.framework/Versions/Current/lib/mono/Xamarin.iOS/Facades/System.Security.Cryptography.Hashing.Algorithms.dll
-r=/Library/Frameworks/Xamarin.iOS.framework/Versions/Current/lib/mono/Xamarin.iOS/Facades/System.Security.Cryptography.Hashing.dll
-r=/Library/Frameworks/Xamarin.iOS.framework/Versions/Current/lib/mono/Xamarin.iOS/Facades/System.Security.Cryptography.OpenSsl.dll
-r=/Library/Frameworks/Xamarin.iOS.framework/Versions/Current/lib/mono/Xamarin.iOS/Facades/System.Security.Cryptography.Pkcs.dll
-r=/Library/Frameworks/Xamarin.iOS.framework/Versions/Current/lib/mono/Xamarin.iOS/Facades/System.Security.Cryptography.Primitives.dll
-r=/Library/Frameworks/Xamarin.iOS.framework/Versions/Current/lib/mono/Xamarin.iOS/Facades/System.Security.Cryptography.ProtectedData.dll
-r=/Library/Frameworks/Xamarin.iOS.framework/Versions/Current/lib/mono/Xamarin.iOS/Facades/System.Security.Cryptography.RandomNumberGenerator.dll
-r=/Library/Frameworks/Xamarin.iOS.framework/Versions/Current/lib/mono/Xamarin.iOS/Facades/System.Security.Cryptography.RSA.dll
-r=/Library/Frameworks/Xamarin.iOS.framework/Versions/Current/lib/mono/Xamarin.iOS/Facades/System.Security.Cryptography.X509Certificates.dll
-r=/Library/Frameworks/Xamarin.iOS.framework/Versions/Current/lib/mono/Xamarin.iOS/Facades/System.Security.Principal.dll
-r=/Library/Frameworks/Xamarin.iOS.framework/Versions/Current/lib/mono/Xamarin.iOS/Facades/System.Security.Principal.Windows.dll
-r=/Library/Frameworks/Xamarin.iOS.framework/Versions/Current/lib/mono/Xamarin.iOS/Facades/System.Security.SecureString.dll
-r=/Library/Frameworks/Xamarin.iOS.framework/Versions/Current/lib/mono/Xamarin.iOS/Facades/System.ServiceModel.Duplex.dll
-r=/Library/Frameworks/Xamarin.iOS.framework/Versions/Current/lib/mono/Xamarin.iOS/Facades/System.ServiceModel.Http.dll
-r=/Library/Frameworks/Xamarin.iOS.framework/Versions/Current/lib/mono/Xamarin.iOS/Facades/System.ServiceModel.NetTcp.dll
-r=/Library/Frameworks/Xamarin.iOS.framework/Versions/Current/lib/mono/Xamarin.iOS/Facades/System.ServiceModel.Primitives.dll
-r=/Library/Frameworks/Xamarin.iOS.framework/Versions/Current/lib/mono/Xamarin.iOS/Facades/System.ServiceModel.Security.dll
-r=/Library/Frameworks/Xamarin.iOS.framework/Versions/Current/lib/mono/Xamarin.iOS/Facades/System.ServiceProcess.ServiceController.dll
-r=/Library/Frameworks/Xamarin.iOS.framework/Versions/Current/lib/mono/Xamarin.iOS/Facades/System.Text.Encoding.CodePages.dll
-r=/Library/Frameworks/Xamarin.iOS.framework/Versions/Current/lib/mono/Xamarin.iOS/Facades/System.Text.Encoding.dll
-r=/Library/Frameworks/Xamarin.iOS.framework/Versions/Current/lib/mono/Xamarin.iOS/Facades/System.Text.Encoding.Extensions.dll
-r=/Library/Frameworks/Xamarin.iOS.framework/Versions/Current/lib/mono/Xamarin.iOS/Facades/System.Text.RegularExpressions.dll
-r=/Library/Frameworks/Xamarin.iOS.framework/Versions/Current/lib/mono/Xamarin.iOS/Facades/System.Threading.AccessControl.dll
-r=/Library/Frameworks/Xamarin.iOS.framework/Versions/Current/lib/mono/Xamarin.iOS/Facades/System.Threading.dll
-r=/Library/Frameworks/Xamarin.iOS.framework/Versions/Current/lib/mono/Xamarin.iOS/Facades/System.Threading.Overlapped.dll
-r=/Library/Frameworks/Xamarin.iOS.framework/Versions/Current/lib/mono/Xamarin.iOS/Facades/System.Threading.Tasks.dll
-r=/Library/Frameworks/Xamarin.iOS.framework/Versions/Current/lib/mono/Xamarin.iOS/Facades/System.Threading.Tasks.Extensions.dll
-r=/Library/Frameworks/Xamarin.iOS.framework/Versions/Current/lib/mono/Xamarin.iOS/Facades/System.Threading.Tasks.Parallel.dll
-r=/Library/Frameworks/Xamarin.iOS.framework/Versions/Current/lib/mono/Xamarin.iOS/Facades/System.Threading.Thread.dll
-r=/Library/Frameworks/Xamarin.iOS.framework/Versions/Current/lib/mono/Xamarin.iOS/Facades/System.Threading.ThreadPool.dll
-r=/Library/Frameworks/Xamarin.iOS.framework/Versions/Current/lib/mono/Xamarin.iOS/Facades/System.Threading.Timer.dll
-r=/Library/Frameworks/Xamarin.iOS.framework/Versions/Current/lib/mono/Xamarin.iOS/Facades/System.ValueTuple.dll
-r=/Library/Frameworks/Xamarin.iOS.framework/Versions/Current/lib/mono/Xamarin.iOS/Facades/System.Xml.ReaderWriter.dll
-r=/Library/Frameworks/Xamarin.iOS.framework/Versions/Current/lib/mono/Xamarin.iOS/Facades/System.Xml.XDocument.dll
-r=/Library/Frameworks/Xamarin.iOS.framework/Versions/Current/lib/mono/Xamarin.iOS/Facades/System.Xml.XmlDocument.dll
-r=/Library/Frameworks/Xamarin.iOS.framework/Versions/Current/lib/mono/Xamarin.iOS/Facades/System.Xml.XmlSerializer.dll
-r=/Library/Frameworks/Xamarin.iOS.framework/Versions/Current/lib/mono/Xamarin.iOS/Facades/System.Xml.XPath.dll
-r=/Library/Frameworks/Xamarin.iOS.framework/Versions/Current/lib/mono/Xamarin.iOS/Facades/System.Xml.XPath.XDocument.dll
-r=/Library/Frameworks/Xamarin.iOS.framework/Versions/Current/lib/mono/Xamarin.iOS/Facades/System.Xml.XPath.XmlDocument.dll
-r=/Library/Frameworks/Xamarin.iOS.framework/Versions/Current/lib/mono/Xamarin.iOS/Facades/System.Xml.Xsl.Primitives.dll
-r=/Users/samuel/.nuget/packages/microcharts/0.8.5-pre/lib/Xamarin.iOS10/Microcharts.dll
-r=/Users/samuel/.nuget/packages/microcharts/0.8.5-pre/lib/Xamarin.iOS10/Microcharts.iOS.dll
-r=/Users/samuel/.nuget/packages/microcharts.forms/0.8.5-pre/lib/netstandard1.3/Microcharts.Forms.dll
-r=/Users/samuel/.nuget/packages/oxyplot.core/2.0.0-unstable0956/lib/portable-net45+netcore45+wpa81+wp8+MonoAndroid1+MonoTouch1+Xamarin.iOS10/OxyPlot.dll
-r=/Users/samuel/.nuget/packages/oxyplot.xamarin.forms/1.1.0-unstable0011/lib/Xamarin.iOS10/OxyPlot.Xamarin.Forms.Platform.iOS.dll
-r=/Users/samuel/.nuget/packages/oxyplot.xamarin.forms/1.1.0-unstable0011/lib/Xamarin.iOS10/OxyPlot.Xamarin.Forms.dll
-r=/Users/samuel/.nuget/packages/oxyplot.xamarin.ios/1.1.0-unstable0011/lib/Xamarin.iOS10/OxyPlot.Xamarin.iOS.dll
-r=/Users/samuel/.nuget/packages/plugin.inappbilling/2.1.0.187-beta/lib/Xamarin.iOS10/Plugin.InAppBilling.Abstractions.dll
-r=/Users/samuel/.nuget/packages/plugin.inappbilling/2.1.0.187-beta/lib/Xamarin.iOS10/Plugin.InAppBilling.dll
-r=/Users/samuel/.nuget/packages/skiasharp/1.68.0/lib/Xamarin.iOS/SkiaSharp.dll
-r=/Users/samuel/.nuget/packages/skiasharp.views/1.68.0/lib/Xamarin.iOS/SkiaSharp.Views.iOS.dll
-r=/Users/samuel/.nuget/packages/skiasharp.views.forms/1.68.0/lib/Xamarin.iOS/SkiaSharp.Views.Forms.dll
-r=/Users/samuel/.nuget/packages/xam.plugins.downloadmanager/1.4.0/lib/Xamarin.iOS10/Plugin.DownloadManager.Abstractions.dll
-r=/Users/samuel/.nuget/packages/xam.plugins.downloadmanager/1.4.0/lib/Xamarin.iOS10/Plugin.DownloadManager.dll
-r=/Users/samuel/.nuget/packages/xam.plugins.forms.keyboardoverlap/1.0.0.4/lib/Xamarin.iOS10/KeyboardOverlap.Forms.Plugin.iOSUnified.dll
-r=/Users/samuel/.nuget/packages/xam.plugins.messaging/5.2.0/lib/Xamarin.iOS10/Plugin.Messaging.Abstractions.dll
-r=/Users/samuel/.nuget/packages/xam.plugins.messaging/5.2.0/lib/Xamarin.iOS10/Plugin.Messaging.dll
-r=/Users/samuel/.nuget/packages/xam.plugins.notifier/3.0.1/lib/Xamarin.iOS10/Plugin.LocalNotifications.Abstractions.dll
-r=/Users/samuel/.nuget/packages/xam.plugins.notifier/3.0.1/lib/Xamarin.iOS10/Plugin.LocalNotifications.dll
-r=/Users/samuel/.nuget/packages/xam.plugins.vibrate/4.0.0.5/lib/xamarinios10/Plugin.Vibrate.dll
-r=/Users/samuel/.nuget/packages/xamarin.essentials/1.1.0/lib/xamarinios10/Xamarin.Essentials.dll
-r=/Users/samuel/.nuget/packages/xamarin.forms/3.6.0.293080/lib/Xamarin.iOS10/Xamarin.Forms.Core.dll
-r=/Users/samuel/.nuget/packages/xamarin.forms/3.6.0.293080/lib/Xamarin.iOS10/Xamarin.Forms.Platform.dll
-r=/Users/samuel/.nuget/packages/xamarin.forms/3.6.0.293080/lib/Xamarin.iOS10/Xamarin.Forms.Platform.iOS.dll
-r=/Users/samuel/.nuget/packages/xamarin.forms/3.6.0.293080/lib/Xamarin.iOS10/Xamarin.Forms.Xaml.dll
-r=/Users/samuel/.nuget/packages/xamarin.forms/3.6.0.293080/lib/Xamarin.iOS10/ar/Xamarin.Forms.Platform.iOS.resources.dll
-r=/Users/samuel/.nuget/packages/xamarin.forms/3.6.0.293080/lib/Xamarin.iOS10/ca/Xamarin.Forms.Platform.iOS.resources.dll
-r=/Users/samuel/.nuget/packages/xamarin.forms/3.6.0.293080/lib/Xamarin.iOS10/cs/Xamarin.Forms.Platform.iOS.resources.dll
-r=/Users/samuel/.nuget/packages/xamarin.forms/3.6.0.293080/lib/Xamarin.iOS10/da/Xamarin.Forms.Platform.iOS.resources.dll
-r=/Users/samuel/.nuget/packages/xamarin.forms/3.6.0.293080/lib/Xamarin.iOS10/de/Xamarin.Forms.Platform.iOS.resources.dll
-r=/Users/samuel/.nuget/packages/xamarin.forms/3.6.0.293080/lib/Xamarin.iOS10/el/Xamarin.Forms.Platform.iOS.resources.dll
-r=/Users/samuel/.nuget/packages/xamarin.forms/3.6.0.293080/lib/Xamarin.iOS10/es/Xamarin.Forms.Platform.iOS.resources.dll
-r=/Users/samuel/.nuget/packages/xamarin.forms/3.6.0.293080/lib/Xamarin.iOS10/fi/Xamarin.Forms.Platform.iOS.resources.dll
-r=/Users/samuel/.nuget/packages/xamarin.forms/3.6.0.293080/lib/Xamarin.iOS10/fr/Xamarin.Forms.Platform.iOS.resources.dll
-r=/Users/samuel/.nuget/packages/xamarin.forms/3.6.0.293080/lib/Xamarin.iOS10/he/Xamarin.Forms.Platform.iOS.resources.dll
-r=/Users/samuel/.nuget/packages/xamarin.forms/3.6.0.293080/lib/Xamarin.iOS10/hi/Xamarin.Forms.Platform.iOS.resources.dll
-r=/Users/samuel/.nuget/packages/xamarin.forms/3.6.0.293080/lib/Xamarin.iOS10/hr/Xamarin.Forms.Platform.iOS.resources.dll
-r=/Users/samuel/.nuget/packages/xamarin.forms/3.6.0.293080/lib/Xamarin.iOS10/hu/Xamarin.Forms.Platform.iOS.resources.dll
-r=/Users/samuel/.nuget/packages/xamarin.forms/3.6.0.293080/lib/Xamarin.iOS10/id/Xamarin.Forms.Platform.iOS.resources.dll
-r=/Users/samuel/.nuget/packages/xamarin.forms/3.6.0.293080/lib/Xamarin.iOS10/it/Xamarin.Forms.Platform.iOS.resources.dll
-r=/Users/samuel/.nuget/packages/xamarin.forms/3.6.0.293080/lib/Xamarin.iOS10/ja/Xamarin.Forms.Platform.iOS.resources.dll
-r=/Users/samuel/.nuget/packages/xamarin.forms/3.6.0.293080/lib/Xamarin.iOS10/ko/Xamarin.Forms.Platform.iOS.resources.dll
-r=/Users/samuel/.nuget/packages/xamarin.forms/3.6.0.293080/lib/Xamarin.iOS10/ms/Xamarin.Forms.Platform.iOS.resources.dll
-r=/Users/samuel/.nuget/packages/xamarin.forms/3.6.0.293080/lib/Xamarin.iOS10/nb/Xamarin.Forms.Platform.iOS.resources.dll
-r=/Users/samuel/.nuget/packages/xamarin.forms/3.6.0.293080/lib/Xamarin.iOS10/nl/Xamarin.Forms.Platform.iOS.resources.dll
-r=/Users/samuel/.nuget/packages/xamarin.forms/3.6.0.293080/lib/Xamarin.iOS10/pl/Xamarin.Forms.Platform.iOS.resources.dll
-r=/Users/samuel/.nuget/packages/xamarin.forms/3.6.0.293080/lib/Xamarin.iOS10/pt-BR/Xamarin.Forms.Platform.iOS.resources.dll
-r=/Users/samuel/.nuget/packages/xamarin.forms/3.6.0.293080/lib/Xamarin.iOS10/pt/Xamarin.Forms.Platform.iOS.resources.dll
-r=/Users/samuel/.nuget/packages/xamarin.forms/3.6.0.293080/lib/Xamarin.iOS10/ro/Xamarin.Forms.Platform.iOS.resources.dll
-r=/Users/samuel/.nuget/packages/xamarin.forms/3.6.0.293080/lib/Xamarin.iOS10/ru/Xamarin.Forms.Platform.iOS.resources.dll
-r=/Users/samuel/.nuget/packages/xamarin.forms/3.6.0.293080/lib/Xamarin.iOS10/sk/Xamarin.Forms.Platform.iOS.resources.dll
-r=/Users/samuel/.nuget/packages/xamarin.forms/3.6.0.293080/lib/Xamarin.iOS10/sv/Xamarin.Forms.Platform.iOS.resources.dll
-r=/Users/samuel/.nuget/packages/xamarin.forms/3.6.0.293080/lib/Xamarin.iOS10/th/Xamarin.Forms.Platform.iOS.resources.dll
-r=/Users/samuel/.nuget/packages/xamarin.forms/3.6.0.293080/lib/Xamarin.iOS10/tr/Xamarin.Forms.Platform.iOS.resources.dll
-r=/Users/samuel/.nuget/packages/xamarin.forms/3.6.0.293080/lib/Xamarin.iOS10/uk/Xamarin.Forms.Platform.iOS.resources.dll
-r=/Users/samuel/.nuget/packages/xamarin.forms/3.6.0.293080/lib/Xamarin.iOS10/vi/Xamarin.Forms.Platform.iOS.resources.dll
-r=/Users/samuel/.nuget/packages/xamarin.forms/3.6.0.293080/lib/Xamarin.iOS10/zh-HK/Xamarin.Forms.Platform.iOS.resources.dll
-r=/Users/samuel/.nuget/packages/xamarin.forms/3.6.0.293080/lib/Xamarin.iOS10/zh-Hans/Xamarin.Forms.Platform.iOS.resources.dll
-r=/Users/samuel/.nuget/packages/xamarin.forms/3.6.0.293080/lib/Xamarin.iOS10/zh-Hant/Xamarin.Forms.Platform.iOS.resources.dll
"-r=/Users/samuel/Desktop/Content VM Share/Coden/SmashGym/SmashGym/bin/Debug/netstandard2.0/SmashGym.dll"
 --target-framework=Xamarin.iOS,v1.0
"--root-assembly=/Users/samuel/Desktop/Content VM Share/Coden/SmashGym/SmashGym.iOS/bin/iPhoneSimulator/Debug/SmashGym.iOS.exe"
 
